id	apartment	seller	price	completed_on
2	807	761	19469.89	1898-11-30
3	812	585	45367.24	1900-07-16
4	996	587	6632.68	1899-09-01
5	1324	720	10820.18	1900-08-12
6	422	933	60451.65	1901-07-15
7	413	913	27772.43	1900-12-27
8	996	830	11557.11	1901-06-08
9	424	577	6728.18	1902-01-07
10	1323	42	13490.52	1901-01-22
11	1705	998	13645.98	1901-11-20
12	1713	72	13543.39	1901-04-12
13	412	164	29246.70	1903-07-29
14	414	112	9723.59	1902-01-23
15	1425	25	6377.10	1902-04-18
16	1710	321	10951.25	1902-03-12
17	416	509	21825.13	1903-12-24
18	997	609	18282.30	1903-11-14
19	1422	98	15833.77	1903-11-17
20	1427	293	25150.40	1904-01-04
21	1324	830	5767.75	1903-08-07
22	1717	289	6053.97	1903-07-06
23	1926	975	11307.94	1903-03-21
24	803	985	42219.84	1905-02-21
25	1715	340	17634.77	1904-09-23
26	1716	357	13140.59	1905-02-20
27	1721	828	26893.30	1905-04-29
28	1707	865	44080.13	1904-12-08
29	1708	517	12236.68	1904-09-20
30	1760	643	22617.06	1905-03-15
31	1916	840	39648.63	1905-03-30
32	412	830	13711.62	1905-06-23
33	413	409	21127.87	1905-07-24
34	812	44	47878.72	1906-06-09
35	1426	767	39251.92	1906-02-20
36	1761	76	9138.72	1906-02-15
37	1922	14	11556.97	1906-03-17
38	414	409	9779.96	1906-01-12
39	417	763	28276.17	1906-09-17
40	727	337	5236.56	1906-07-19
41	996	416	4506.39	1906-03-27
42	1424	626	25721.93	1906-08-02
43	1714	925	9990.96	1906-03-06
44	1717	409	13922.04	1907-07-31
45	1719	336	15475.22	1907-07-19
46	1757	511	7966.16	1906-06-19
47	1759	568	4976.93	1906-06-14
48	1763	801	16078.43	1906-02-21
49	1921	884	6112.68	1906-01-30
50	1915	649	16628.53	1906-09-15
51	423	60	59971.39	1908-05-23
52	738	523	7674.86	1907-01-08
53	803	833	46007.50	1908-03-13
54	806	262	26840.41	1908-05-28
55	810	427	29437.95	1908-01-23
56	811	131	18863.37	1907-02-20
57	1427	830	29989.12	1908-02-29
58	1321	181	57537.03	1908-08-07
59	1534	422	8005.09	1907-08-19
60	1537	205	21868.74	1907-09-20
61	1714	830	15052.95	1907-06-19
62	1707	833	67763.13	1908-07-21
63	1709	594	11100.25	1908-05-23
64	1760	409	13685.12	1907-07-08
65	725	275	19087.70	1908-06-12
66	728	469	25583.69	1909-08-17
67	878	372	18909.42	1908-12-27
68	879	910	22346.45	1908-05-06
69	884	546	34119.31	1908-09-25
70	1540	734	18608.46	1908-04-09
71	1714	833	9700.16	1908-02-21
72	1756	351	30059.54	1908-12-30
73	1757	833	8739.19	1908-07-08
74	1763	833	60007.04	1909-07-31
75	1919	924	43644.72	1908-11-25
76	421	989	25345.37	1909-09-27
77	733	10	41143.34	1909-10-25
78	736	994	39465.90	1909-11-02
79	726	576	37893.38	1910-07-14
80	732	838	33673.28	1910-05-28
81	812	665	37075.80	1909-12-03
82	1322	253	27357.46	1910-05-16
83	1718	670	31923.88	1909-11-08
84	1912	311	15534.64	1910-07-14
85	1914	652	27380.16	1909-12-29
86	1920	777	54677.17	1910-05-30
87	419	167	65761.27	1911-07-06
88	424	833	5198.40	1910-07-12
89	626	88	12548.48	1910-10-04
90	738	833	24598.81	1910-11-22
91	728	833	22702.70	1911-05-01
92	1003	987	26527.78	1910-10-08
93	1421	361	37474.11	1911-01-17
94	1546	761	10346.72	1910-10-23
95	1717	833	13843.85	1911-06-09
96	1764	195	56864.71	1911-05-03
97	624	403	10086.47	1911-03-11
98	623	818	45675.52	1912-01-30
99	729	143	38985.27	1911-10-23
100	881	414	24935.45	1912-05-22
101	885	514	26427.60	1912-07-18
102	999	530	8002.21	1912-02-09
103	1004	452	9219.82	1911-08-17
104	1427	833	21926.21	1911-08-30
105	1324	833	12241.15	1912-06-12
106	1547	64	25088.11	1911-06-16
107	1538	463	4696.29	1911-04-09
108	1715	429	34132.82	1912-07-17
109	2006	409	17254.48	1911-12-07
110	1998	833	12512.74	1911-05-03
111	628	86	12577.63	1912-11-21
112	1000	207	39184.32	1912-11-12
113	1545	238	5969.92	1912-05-02
114	1540	833	29742.21	1912-08-12
115	1991	943	67779.44	1913-07-04
116	2001	308	24423.89	1912-07-03
117	2008	702	40034.05	1913-01-13
118	1994	381	17826.22	1912-06-14
119	724	205	30622.98	1913-07-24
120	997	409	12648.63	1913-05-03
121	1663	207	25885.47	1914-07-19
122	1665	404	44032.41	1913-12-10
123	1666	365	14934.42	1913-02-07
124	1667	326	29563.58	1913-11-21
125	1542	127	43368.30	1914-05-14
126	1543	47	37599.94	1914-03-13
127	1535	533	24774.47	1913-12-10
128	1706	765	16669.28	1914-05-06
129	1913	455	13760.70	1914-05-09
130	1914	833	21877.49	1913-08-25
131	807	833	28320.18	1915-01-15
132	1425	833	22714.11	1915-08-16
133	1322	955	7917.77	1914-01-23
134	1543	830	26897.30	1914-09-15
135	1539	390	49624.68	1915-03-23
136	1720	108	20657.01	1915-04-13
137	1824	271	23886.36	1914-03-28
138	1915	409	18665.49	1914-09-06
139	2001	830	39944.83	1915-01-08
140	2002	982	11029.61	1914-01-03
141	423	833	66237.86	1916-04-17
142	617	989	39662.81	1916-04-04
143	728	830	7717.62	1915-02-16
144	730	973	34620.46	1916-01-02
145	808	576	19880.76	1916-03-02
146	996	833	4690.16	1915-02-27
147	1660	53	19319.54	1915-09-08
148	1707	830	33577.77	1915-06-04
149	1765	519	27551.44	1915-05-10
150	1830	439	5758.46	1915-03-16
151	1914	830	14577.54	1915-04-03
152	1917	834	17662.06	1915-09-24
153	1918	512	23315.22	1916-06-09
154	2007	622	70498.76	1916-05-15
155	1996	758	6687.08	1915-07-09
156	1999	144	11449.90	1915-03-20
157	116	320	22190.41	1916-08-21
158	412	833	26004.89	1916-12-08
159	418	956	30888.62	1916-05-22
160	625	921	6140.81	1916-03-15
161	629	499	40435.92	1917-07-02
162	616	727	31369.95	1917-02-15
163	622	483	4088.55	1916-03-28
164	878	830	12908.27	1916-05-25
165	945	943	45741.06	1917-04-11
166	1322	830	27412.79	1917-02-16
167	1323	830	17708.11	1916-01-18
168	1547	830	41089.58	1916-11-05
169	1536	268	42825.74	1917-06-25
170	1714	830	31316.76	1917-02-04
171	1712	730	33970.56	1917-05-08
172	1925	202	20605.29	1917-01-05
173	2000	830	15009.47	1916-02-20
174	2004	757	44498.95	1917-02-22
175	1993	552	47147.17	1916-10-02
176	109	377	14781.43	1917-02-14
177	624	830	31079.71	1918-03-04
178	626	830	24497.21	1918-07-08
179	884	830	50897.33	1917-12-24
180	1009	231	33329.61	1917-10-16
181	1424	409	47759.08	1918-01-18
182	1550	929	46193.23	1918-06-18
183	1551	557	55179.33	1918-06-13
184	1755	427	33277.38	1917-10-22
185	1761	833	5707.35	1917-05-01
186	1762	905	17215.29	1917-05-22
187	1822	20	15214.77	1917-06-20
188	1853	387	54876.07	1918-08-16
189	2005	518	9547.89	1918-03-29
190	2006	833	9755.59	1917-03-29
191	1998	830	14837.68	1917-05-06
192	1	668	36830.51	1918-09-02
193	8	654	34201.06	1919-05-28
194	115	301	18054.06	1919-08-20
195	107	36	10622.49	1918-06-22
196	619	840	34910.57	1919-02-22
197	735	360	2931.04	1918-01-29
198	946	377	38010.36	1918-07-09
199	1006	949	23871.54	1919-05-24
200	1011	339	33523.39	1918-09-20
201	1420	363	49918.88	1918-10-02
202	1422	833	28641.16	1919-04-02
203	1423	328	32251.50	1918-08-25
204	1323	833	31743.31	1918-05-08
205	1662	344	7529.02	1918-02-10
206	1664	686	25663.60	1919-01-29
207	1452	750	47546.10	1918-12-14
208	1456	182	12078.64	1918-04-05
209	1832	217	35051.58	1919-01-26
210	1854	981	23956.80	1918-05-10
211	1842	72	44569.86	1918-08-07
212	2003	895	72253.16	1919-04-10
213	105	773	14803.19	1919-01-22
214	415	240	12296.22	1919-12-23
215	731	549	94098.95	1920-07-24
216	883	934	18357.48	1919-01-08
217	1461	955	31035.60	1919-11-18
218	1455	275	37831.42	1919-08-02
219	1549	727	12238.49	1919-07-23
220	1828	211	27145.46	1919-03-22
221	1914	144	35567.64	1919-12-21
222	1992	350	37911.62	1919-05-24
223	2123	298	14169.19	1919-01-12
224	2125	604	58840.87	1920-06-21
225	2127	701	43945.01	1919-08-19
226	119	552	31989.13	1920-10-19
227	102	308	47187.86	1920-07-12
228	622	830	7483.81	1920-07-28
229	1543	833	61748.09	1921-08-03
230	1714	833	34189.87	1920-12-14
231	1850	985	14547.05	1920-01-18
232	1838	481	17854.74	1920-06-22
233	1923	885	39194.12	1920-06-09
234	1918	833	8368.48	1920-02-15
235	2131	226	58893.99	1921-07-10
236	2128	8	48770.09	1920-08-20
237	416	830	37450.71	1922-01-15
238	624	833	18164.32	1921-05-08
239	804	833	58711.96	1921-10-04
240	1533	604	60044.96	1921-12-24
241	1764	833	31786.69	1921-04-08
242	1924	478	78078.36	1922-01-28
243	2132	778	31568.13	1922-01-19
244	6	489	32938.73	1922-03-27
245	114	684	11903.49	1922-02-28
246	116	830	46114.84	1923-03-20
247	724	830	64436.79	1922-12-25
248	728	833	39358.28	1923-07-27
249	809	29	10024.39	1922-12-07
250	882	703	29725.23	1922-03-14
251	944	942	17902.77	1923-03-24
252	1005	984	52136.81	1923-02-17
253	1010	661	40460.35	1922-08-24
254	1843	927	51548.53	1922-09-06
255	1844	950	42492.89	1922-12-12
256	1927	54	80316.91	1923-02-16
257	2134	147	36146.02	1922-06-16
258	111	835	84994.27	1924-03-14
259	106	937	62852.76	1924-05-21
260	423	429	59098.87	1923-08-22
261	943	750	56253.14	1924-06-24
262	1428	823	63661.12	1924-02-05
263	1453	855	21908.09	1924-02-02
264	1454	199	5273.53	1923-02-14
265	1538	833	17252.98	1924-03-01
266	1541	68	15926.01	1924-08-15
267	1826	341	55752.81	1923-08-29
268	1841	37	25771.97	1923-04-11
269	2129	60	48761.93	1924-07-14
270	103	110	52459.83	1925-01-01
271	416	429	31392.34	1924-08-14
272	615	623	44943.07	1924-09-19
273	627	616	10468.18	1924-06-28
274	1012	300	49101.79	1924-10-20
275	1016	97	19689.05	1924-03-11
276	1324	830	10110.34	1924-07-02
277	1548	899	68274.29	1925-02-10
278	1537	830	45848.31	1924-11-26
279	1717	830	21891.21	1925-04-23
280	1837	345	38756.59	1924-04-03
281	1852	487	107661.95	1925-05-28
282	1855	48	28111.63	1924-08-09
283	1993	830	112491.14	1925-06-14
284	410	711	68894.06	1925-09-05
285	628	830	7029.07	1925-01-02
286	829	327	29392.84	1925-02-26
287	831	778	20221.03	1925-02-08
288	1014	72	46561.29	1926-08-17
289	1015	35	27433.61	1925-11-08
290	1661	10	29712.14	1926-03-24
291	1720	833	22619.34	1925-09-10
292	1831	349	48140.34	1925-06-26
293	1840	533	16907.14	1926-07-07
294	1845	365	68719.97	1926-04-16
295	2133	415	50286.43	1926-01-08
296	100	303	25313.28	1926-01-28
297	110	220	52730.52	1927-05-04
298	621	235	61553.03	1927-05-06
299	637	355	25113.94	1926-02-13
300	1021	899	27712.88	1926-10-22
301	1717	833	18172.57	1926-11-15
302	1847	90	21498.00	1926-04-21
303	1856	223	88210.08	1927-04-04
304	2001	833	34655.00	1926-04-18
305	4	571	26719.54	1927-06-14
306	634	151	77771.43	1928-06-21
307	821	946	78832.72	1927-10-19
308	1022	349	48188.36	1928-05-13
309	1018	754	17400.31	1927-01-18
310	1330	800	121339.16	1928-05-06
311	1459	142	52752.88	1928-05-13
312	1927	830	110599.45	1928-03-21
313	432	984	125170.59	1929-07-05
314	628	833	21825.53	1928-09-16
315	737	674	44786.31	1929-04-19
316	808	833	13317.24	1928-02-27
317	832	504	10345.71	1928-02-28
318	822	775	64795.95	1928-09-16
319	884	833	93045.65	1929-01-17
320	1011	833	21327.16	1928-01-08
321	1324	833	25166.65	1929-06-18
322	1329	37	9835.44	1928-01-18
323	1707	833	58854.13	1928-05-16
324	101	941	5308.58	1929-01-24
325	622	833	17995.60	1930-02-08
326	639	101	56376.30	1929-06-04
327	635	385	90352.54	1930-05-31
328	638	44	88589.14	1929-11-05
329	805	384	58011.02	1929-09-18
330	830	948	121120.93	1930-02-20
331	834	851	51356.85	1929-11-26
332	1322	833	31355.21	1929-07-11
333	1840	833	9297.24	1929-06-24
334	1995	650	136885.96	1930-04-24
335	1998	453	40188.90	1929-09-20
336	2081	505	43646.64	1929-03-11
337	2077	245	38554.79	1930-04-07
338	620	550	11175.22	1930-08-17
339	640	832	77164.59	1931-05-08
340	631	118	55539.47	1930-08-20
341	633	621	50063.65	1930-10-09
342	818	57	36338.24	1931-08-12
343	827	745	44301.50	1930-11-06
344	828	828	47011.81	1930-03-28
345	1427	830	49869.66	1930-09-16
346	1328	253	13325.68	1930-04-21
347	1333	300	36841.58	1930-02-07
348	1829	472	75540.10	1930-07-06
349	1948	383	37639.64	1930-10-03
350	2084	660	32193.32	1930-07-04
351	2074	278	11980.12	1930-07-28
352	9	132	12181.82	1931-02-02
353	425	309	22122.36	1931-03-06
354	428	616	60522.64	1931-06-07
355	429	202	45493.87	1932-07-27
356	431	572	63516.53	1931-08-25
357	618	707	95708.81	1931-10-03
358	1027	246	102404.18	1932-08-15
359	1033	927	32687.33	1931-04-25
360	1332	959	101621.10	1931-11-02
361	1334	227	28885.43	1932-07-15
362	1460	334	49573.82	1931-08-15
363	1537	833	52991.77	1931-09-22
364	1770	636	13439.64	1931-01-01
365	1771	829	155350.50	1932-06-23
366	1943	82	40741.94	1931-12-19
367	1956	471	54449.62	1931-03-29
368	1949	414	72685.06	1931-08-20
369	2070	103	50090.21	1931-08-13
370	2083	83	126052.86	1932-03-17
371	2076	879	29664.19	1931-03-07
372	2130	327	28419.67	1931-04-20
373	117	563	15767.77	1932-06-24
374	427	735	87310.07	1932-12-03
375	1029	717	19835.52	1932-06-23
376	1424	830	132462.41	1933-08-12
377	1667	833	58234.20	1932-09-19
378	1771	833	156994.66	1933-06-04
379	1849	891	53875.88	1932-04-03
380	2070	833	60929.86	1932-10-15
381	2073	860	35219.14	1932-02-12
382	264	126	28247.61	1933-06-07
383	269	672	37058.23	1933-08-14
384	257	892	15983.44	1933-06-04
385	258	289	104980.18	1934-07-30
386	260	694	11977.28	1933-08-03
387	263	444	56850.16	1934-03-03
388	620	830	9214.46	1933-05-11
389	630	981	98613.60	1934-04-29
390	635	830	70966.77	1933-11-03
391	742	736	65664.44	1933-05-22
392	835	228	146888.51	1934-04-16
393	822	833	33043.78	1933-01-26
394	878	833	37002.01	1933-08-31
395	1007	791	68221.59	1933-06-05
396	1035	682	21188.24	1934-01-23
397	1450	71	55126.40	1934-02-01
398	1926	833	88377.06	1934-05-06
399	1957	689	22271.94	1933-03-08
400	1945	443	105110.69	1934-08-23
401	1951	931	44024.00	1934-02-13
402	2004	833	119158.54	1934-07-11
403	2080	557	97928.20	1934-06-01
404	2078	833	89366.65	1933-08-27
405	2	469	80487.13	1935-03-15
406	119	830	37752.28	1934-05-12
407	268	603	92874.17	1935-03-17
408	259	607	108669.25	1935-04-07
409	262	802	113839.80	1935-01-17
410	420	823	11075.68	1934-06-04
411	724	833	154554.18	1935-08-03
412	746	146	79786.10	1934-11-26
413	1036	25	21814.69	1934-11-03
414	1031	379	74073.78	1935-06-12
415	1424	833	135158.04	1935-07-02
416	1335	330	60476.77	1934-04-11
417	1569	57	48566.44	1934-07-19
418	1572	722	54058.79	1935-05-07
419	1706	830	13900.98	1934-03-10
420	1839	300	65000.28	1935-03-09
421	1927	833	129826.28	1935-01-28
422	1952	662	80406.82	1934-11-05
423	1953	409	161968.39	1935-04-25
424	1947	767	23801.22	1934-11-22
425	119	833	62022.52	1935-10-17
426	108	704	130856.71	1935-12-05
427	625	830	37963.23	1936-03-13
428	630	830	73995.34	1935-10-13
429	893	285	31996.91	1936-08-16
430	902	636	64618.19	1936-06-26
431	895	728	23544.85	1936-05-21
432	901	329	19381.11	1935-01-23
433	1019	616	36375.52	1935-02-12
434	1564	54	27422.38	1935-02-11
435	1575	860	25808.85	1935-12-07
436	1848	288	182225.35	1936-07-03
437	256	980	46837.31	1936-12-06
438	509	615	99378.73	1937-06-16
439	620	833	26986.96	1937-07-20
440	740	44	24723.46	1936-03-25
441	745	68	75914.54	1936-11-25
442	823	786	76863.23	1936-05-03
443	1453	833	33420.71	1936-11-21
444	1544	33	140237.94	1937-05-21
445	1578	919	19471.47	1936-03-26
446	1567	487	194635.37	1937-07-02
447	1738	920	110659.97	1936-11-09
448	1840	830	21304.44	1937-02-19
449	1955	547	177341.39	1937-05-24
450	1996	830	34241.95	1937-06-15
451	1997	792	53913.65	1937-02-04
452	2080	833	49196.99	1936-05-22
453	2071	523	55012.15	1936-04-09
454	112	587	34791.21	1937-07-26
455	101	665	10282.19	1937-04-04
456	751	435	40285.39	1938-06-29
457	825	557	183864.43	1938-08-23
458	1008	733	114289.16	1938-07-15
459	1013	469	75416.24	1937-08-01
460	1020	343	16439.80	1937-04-10
461	1028	290	24706.72	1937-12-10
462	1451	489	12673.07	1937-02-20
463	1576	750	20602.89	1937-11-06
464	1579	216	154425.95	1938-07-27
465	1566	87	44214.91	1937-03-25
466	1737	246	71998.02	1938-01-10
467	1851	784	40932.28	1937-01-20
468	1946	114	86754.11	1937-10-28
469	1949	833	114183.54	1937-11-07
470	426	864	89499.95	1938-07-17
471	506	260	100342.91	1939-03-14
472	507	125	74044.20	1938-06-11
473	749	375	18364.42	1938-10-15
474	741	867	39211.98	1939-02-15
475	836	904	149042.97	1939-05-07
476	1032	754	134848.90	1939-01-04
477	1051	481	95682.98	1939-04-17
478	1053	741	43888.46	1938-12-23
479	1048	300	61521.18	1939-08-06
480	1711	786	206763.61	1939-06-12
481	1775	291	20945.67	1938-02-12
482	1950	547	79622.82	1938-05-24
483	2072	142	89067.99	1938-08-09
484	2075	221	147324.96	1939-01-07
485	2126	196	21815.46	1938-03-15
486	430	545	48694.58	1939-05-24
487	503	199	62345.28	1940-01-25
488	1042	29	24918.96	1940-02-15
489	1054	950	34695.57	1939-09-11
490	1237	451	127666.62	1939-08-30
491	1457	316	114498.17	1940-01-22
492	1776	596	51262.16	1939-05-05
493	1840	833	22414.03	1939-12-21
494	113	141	75838.03	1940-11-14
495	116	833	128226.96	1941-07-26
496	255	358	164418.46	1941-08-06
497	261	211	69193.29	1940-07-16
498	505	850	68718.17	1940-04-13
499	1017	471	78442.40	1940-12-19
500	1030	245	230534.42	1941-08-13
501	1267	395	52356.98	1941-03-26
502	1268	521	108220.41	1940-11-09
503	1946	429	76693.49	1940-07-06
504	1993	833	227000.08	1941-06-02
505	2122	372	212072.88	1941-06-14
506	7	424	124969.88	1942-02-16
507	266	468	34474.21	1942-04-16
508	502	843	31638.17	1942-03-31
509	626	833	30857.73	1941-05-17
510	632	766	35813.89	1941-08-16
511	820	877	48315.73	1942-06-06
512	1002	453	201937.94	1942-05-15
513	1043	378	139704.96	1941-12-13
514	1044	783	90461.37	1941-06-25
515	1047	833	126767.75	1942-07-09
516	1336	18	167395.21	1942-03-29
517	2027	381	42875.30	1941-03-14
518	109	833	177626.13	1943-07-16
519	267	159	54898.49	1942-04-01
520	907	872	109887.30	1942-05-24
521	898	884	151845.05	1943-04-21
522	1427	833	60088.48	1942-05-10
523	1574	556	68907.12	1942-11-20
524	1568	708	59402.06	1943-07-18
525	2026	522	32183.71	1942-03-24
526	657	472	134284.66	1944-03-30
527	661	671	52265.18	1943-06-12
528	958	860	117885.76	1944-01-16
529	1057	373	178911.00	1944-01-20
530	1331	98	190267.02	1944-03-19
531	1774	894	14507.26	1943-04-26
532	1917	830	98863.48	1944-04-26
533	2009	649	27118.61	1943-04-01
534	2024	385	31091.33	1943-09-14
535	2082	614	82110.49	1943-02-25
536	311	751	32225.86	1944-03-02
537	317	939	97602.54	1945-06-05
538	264	833	87098.09	1945-01-27
539	508	342	76558.93	1944-10-12
540	531	928	141345.05	1944-09-17
541	518	616	170100.99	1945-02-24
542	520	780	156819.69	1945-03-29
543	630	833	145669.33	1945-01-21
544	656	197	175481.63	1944-10-14
545	647	291	74556.43	1944-05-12
546	652	310	35868.01	1945-03-12
547	904	400	29434.90	1944-03-05
548	899	855	50387.52	1945-02-26
549	900	337	89127.77	1944-12-22
550	965	234	36381.12	1944-04-10
551	967	249	146770.57	1945-02-18
552	1235	294	95501.93	1945-03-06
553	1736	190	204383.44	1945-08-05
554	1825	45	66757.72	1944-04-24
555	1996	833	54134.78	1945-07-11
556	2025	565	76014.82	1944-05-06
557	26	297	40457.16	1945-02-23
558	118	596	10171.50	1945-01-01
559	104	959	239422.00	1946-05-20
560	501	182	126429.22	1945-08-22
561	526	8	23760.64	1945-04-10
562	519	767	222773.04	1946-05-09
563	524	105	199717.27	1946-02-06
564	660	656	87384.93	1945-02-20
565	750	926	54970.75	1945-09-27
566	752	476	185786.63	1946-08-03
567	826	232	57231.93	1945-04-05
568	905	474	179828.63	1946-01-30
569	951	916	47294.62	1946-01-26
570	1045	373	170419.81	1945-08-25
571	1078	323	46962.45	1945-02-17
572	1081	69	198279.31	1945-12-25
573	1266	465	53806.56	1946-02-18
574	1477	224	61130.40	1945-10-17
575	1482	316	134210.35	1946-05-27
576	1469	90	166824.56	1946-05-21
577	1772	521	13696.69	1945-03-21
578	1868	548	141224.07	1945-09-30
579	2023	936	33823.10	1945-05-05
580	2084	830	124493.82	1946-05-04
581	530	897	102952.34	1947-06-26
582	635	833	102614.12	1946-07-19
583	636	998	54110.79	1946-06-19
584	824	192	118791.58	1946-07-20
585	897	728	120912.48	1947-03-11
586	950	687	33703.00	1946-03-06
587	962	356	260484.13	1947-08-23
588	966	240	212338.12	1947-04-21
589	1046	411	47691.17	1946-07-19
590	1082	636	117253.69	1946-10-14
591	1087	541	185662.27	1946-09-19
592	1076	140	47345.88	1946-01-12
593	1077	830	77148.09	1946-06-21
594	1266	830	64718.60	1947-05-17
595	1269	620	75283.45	1946-04-28
596	1573	359	173314.56	1947-05-10
597	1577	53	145584.52	1946-07-02
598	1869	611	233210.02	1947-03-20
599	2022	304	83370.17	1946-10-16
600	2124	62	103200.33	1946-06-28
601	20	214	118183.02	1947-06-02
602	164	289	110647.76	1947-09-12
603	165	955	310967.96	1948-07-19
604	527	225	223381.56	1947-10-29
605	522	401	30437.86	1947-09-20
606	645	869	43748.22	1947-07-17
607	819	574	23220.55	1947-03-06
608	953	249	148580.47	1948-07-02
609	955	780	76223.81	1947-12-04
610	1055	315	275797.07	1948-08-19
611	1083	197	250636.42	1948-02-04
612	1074	16	136754.35	1947-10-27
613	1075	768	18681.32	1947-03-18
614	1079	31	205419.22	1948-01-11
615	1458	528	30313.74	1947-07-02
616	1465	768	155147.15	1948-01-19
617	2029	15	111668.86	1948-05-24
618	30	932	67946.38	1948-10-19
619	18	630	208606.34	1949-02-24
620	172	898	106584.21	1948-07-01
621	174	812	261154.52	1949-01-06
622	210	951	335882.87	1949-08-16
623	516	723	361009.59	1949-08-19
624	956	276	151431.61	1948-09-21
625	1049	528	159225.93	1948-06-08
626	1425	830	51120.56	1948-07-22
627	1773	700	126350.15	1949-02-24
628	1873	431	181387.02	1948-09-25
629	2000	833	221722.70	1949-05-28
630	2079	376	88112.73	1949-06-06
631	314	948	66468.59	1950-04-11
632	504	175	20160.46	1949-03-18
633	523	381	153525.33	1950-08-16
634	655	638	302656.36	1950-06-13
635	658	821	133675.15	1949-04-13
636	659	220	26761.92	1949-02-04
637	903	482	158235.68	1949-12-19
638	952	824	227110.58	1950-06-06
639	957	131	209287.83	1949-10-15
640	1084	504	86154.16	1949-01-13
641	1080	609	170535.04	1950-07-31
642	1476	871	204447.43	1949-11-20
643	1469	830	190460.97	1950-04-29
644	1473	17	101874.81	1949-09-17
645	1547	833	253420.38	1950-04-09
646	1823	514	133426.57	1950-01-12
647	2030	744	190265.58	1950-07-15
648	5	300	173878.70	1950-09-12
649	16	91	162873.38	1950-05-26
650	28	990	133188.39	1950-06-06
651	131	133	46376.49	1951-03-26
652	171	401	143595.59	1950-08-10
653	173	676	208665.32	1950-11-11
654	162	333	109573.19	1950-07-29
655	166	180	158615.38	1951-04-14
656	212	665	354910.27	1951-08-15
657	525	143	202080.99	1951-07-25
658	518	833	219308.28	1951-03-08
659	744	681	80256.67	1950-03-07
660	833	457	79633.78	1950-03-30
661	1089	34	65627.45	1951-02-20
662	1481	791	99515.15	1950-05-29
663	25	55	29217.88	1951-07-11
664	34	916	156110.27	1951-05-05
665	22	560	230004.88	1952-04-13
666	215	279	162131.79	1951-07-20
667	337	216	161052.00	1952-04-22
668	330	751	168442.22	1951-11-05
669	968	848	93730.63	1951-12-07
670	1354	21	44904.93	1951-05-19
671	1927	830	241569.45	1951-11-04
672	1954	731	274656.69	1952-08-01
673	104	429	284697.80	1953-03-17
674	176	342	72278.83	1952-09-13
675	163	940	20042.59	1952-01-11
676	338	504	109190.46	1952-08-11
677	331	75	212862.90	1952-08-11
678	334	663	152960.77	1952-04-19
679	235	907	163323.13	1953-06-12
680	265	186	187941.54	1952-09-06
681	548	791	65217.38	1952-10-22
682	551	26	50599.08	1952-04-02
683	648	349	89035.63	1952-12-16
684	650	371	103518.56	1952-03-29
685	743	17	31835.36	1952-02-04
686	852	947	67424.43	1952-02-07
687	854	207	40890.72	1952-08-29
688	857	571	117486.45	1952-10-26
689	896	722	243116.94	1953-04-14
690	961	287	101536.02	1953-08-19
691	964	980	53132.00	1952-08-01
692	1077	429	51991.01	1952-01-22
693	1266	429	27238.75	1952-03-08
694	1425	22	122158.16	1953-08-02
695	1357	733	246792.82	1952-11-08
696	1359	958	34120.36	1952-05-13
697	1345	551	48951.83	1952-02-23
698	1350	343	90236.28	1952-05-22
699	27	759	269217.10	1954-01-01
700	232	737	240095.58	1954-02-06
701	242	893	240970.39	1954-04-20
702	240	895	55444.14	1954-03-26
703	547	392	47132.40	1953-01-03
704	747	350	41353.85	1953-01-06
705	880	370	125053.98	1954-02-15
706	969	967	73120.65	1953-05-11
707	1119	242	146107.93	1953-05-05
708	1234	654	223213.47	1953-12-17
709	1344	829	98311.21	1953-06-06
710	1346	98	386049.26	1954-07-14
711	170	766	72464.18	1954-03-14
712	313	164	85597.44	1955-07-18
713	340	253	349960.66	1955-04-27
714	329	208	252897.19	1954-09-18
715	243	513	121262.37	1954-11-29
716	517	903	60165.78	1954-01-15
717	557	510	135607.99	1954-11-03
718	558	909	372628.07	1955-03-31
719	549	683	204174.35	1955-02-13
720	552	649	206807.28	1954-09-24
721	732	830	227858.52	1955-06-22
722	1117	206	459528.29	1955-08-05
723	1121	688	23673.79	1954-04-05
724	1236	470	211049.27	1954-07-03
725	1827	78	61313.96	1954-10-25
726	168	813	90146.75	1955-11-06
727	211	42	203979.02	1955-07-20
728	316	42	111009.10	1955-05-02
729	336	649	192969.97	1955-12-24
730	233	656	441697.81	1956-05-17
731	447	415	91750.53	1955-05-02
732	654	643	238499.22	1955-12-12
733	849	632	82203.23	1955-04-22
734	1085	160	72135.15	1955-05-01
735	1104	65	268928.82	1956-05-20
736	1106	425	55644.38	1955-05-15
737	1107	523	89349.32	1955-04-20
738	1108	981	361629.93	1956-04-03
739	1351	819	116075.39	1955-06-20
740	1479	377	144540.45	1956-07-19
741	1467	834	47256.52	1955-08-17
742	35	842	206254.71	1956-11-16
743	315	994	215771.32	1956-11-24
744	342	731	94968.24	1957-02-23
745	328	172	78382.14	1957-04-29
746	248	609	133150.83	1956-11-14
747	250	935	125802.39	1956-02-23
748	855	429	104994.96	1956-05-04
749	959	529	45337.16	1956-10-08
750	1056	40	80043.36	1957-01-24
751	1348	568	301447.81	1957-04-04
752	1570	837	17478.29	1956-02-08
753	1571	902	79096.15	1956-11-03
754	2096	461	56393.19	1956-06-25
755	2089	429	308472.47	1957-01-10
756	2091	416	123435.81	1957-03-13
757	2092	815	342912.11	1957-08-12
758	3	293	161313.78	1957-08-08
759	21	506	26609.85	1957-02-08
760	341	883	499851.06	1958-06-23
761	440	25	146616.38	1957-02-22
762	625	833	77894.54	1957-10-27
763	732	429	139306.57	1957-08-13
764	856	731	119355.79	1957-02-15
765	963	561	215027.28	1958-08-17
766	954	580	51262.91	1957-03-02
767	1052	631	330497.83	1957-11-27
768	1113	830	217162.39	1957-09-30
769	1114	147	111978.73	1957-08-18
770	1475	195	168763.17	1958-05-06
771	1927	513	334919.22	1957-12-13
772	1944	154	110523.84	1957-04-10
773	2028	667	183518.22	1958-08-06
774	2088	266	79683.84	1957-11-06
775	17	397	211865.33	1959-08-11
776	343	42	49650.38	1958-02-21
777	236	732	88180.13	1958-08-05
778	445	238	272342.78	1959-04-23
779	446	381	303492.84	1959-02-15
780	554	154	131257.87	1958-07-03
781	1115	186	189224.10	1959-03-05
782	1116	36	60433.91	1959-01-18
783	1353	846	446005.23	1959-06-09
784	1360	570	158806.48	1958-05-01
785	1782	609	385034.18	1959-07-07
786	1823	429	176901.10	1958-12-07
787	2000	429	107685.78	1958-03-10
788	2084	429	119770.61	1958-08-05
789	2094	760	49941.79	1958-05-18
790	2095	573	327094.72	1959-03-31
791	2087	658	229793.20	1959-08-05
792	161	429	106574.48	1959-04-23
793	167	561	296374.34	1960-01-20
794	318	937	316551.33	1959-10-03
795	339	357	127374.17	1959-05-02
796	249	644	82608.05	1959-09-28
797	270	73	564205.44	1960-07-09
798	283	826	368401.88	1960-08-23
799	271	492	123201.14	1959-03-20
800	273	964	298229.40	1960-06-19
801	510	507	411651.98	1960-07-19
802	529	994	118901.84	1959-04-06
803	521	423	307142.89	1960-01-20
804	739	252	174972.10	1959-07-11
805	1088	722	56873.77	1959-03-23
806	1105	231	55821.74	1959-10-20
807	1109	563	277889.40	1960-08-20
808	1358	505	272072.05	1960-06-14
809	1470	205	178089.80	1960-08-19
810	1784	515	214857.01	1960-01-14
811	1993	830	454220.50	1960-03-20
812	213	248	75323.43	1960-07-06
813	241	928	111804.76	1960-12-01
814	287	866	48738.77	1960-10-14
815	278	63	145577.87	1961-04-06
816	649	428	127238.53	1960-07-25
817	757	243	151989.54	1960-05-26
818	759	727	95598.92	1960-02-15
819	827	830	170032.90	1960-11-12
820	861	444	161041.95	1961-05-21
821	850	408	155668.28	1960-12-03
822	1110	12	195883.27	1961-08-04
823	1111	731	184131.63	1961-08-23
824	1474	955	36214.18	1960-06-03
825	1471	103	279440.16	1961-06-17
826	1472	896	113145.38	1960-02-03
827	2098	14	93010.10	1960-02-28
828	2086	598	157929.28	1960-06-16
829	2093	697	148352.03	1960-03-31
830	251	306	324035.62	1962-04-04
831	555	363	43644.66	1961-05-20
832	646	162	186299.35	1961-04-07
833	653	488	514667.56	1962-03-04
834	754	165	212186.40	1962-01-30
835	767	125	55601.95	1961-01-30
836	853	658	189500.88	1961-08-11
837	1113	429	319989.44	1961-12-19
838	1264	865	33507.30	1961-01-13
839	1343	322	52827.73	1961-05-08
840	1781	403	366772.27	1962-01-22
841	2097	370	200042.84	1961-05-01
842	24	644	259314.18	1963-03-07
843	175	256	373082.71	1963-07-30
844	312	858	143884.06	1962-03-19
845	285	431	134149.50	1962-11-01
846	447	429	201214.95	1962-09-26
847	556	585	282987.93	1962-09-27
848	678	624	179190.68	1962-04-20
849	764	828	605704.02	1963-06-12
850	894	508	265688.00	1963-05-09
851	1136	453	188928.32	1963-01-19
852	1138	260	262139.25	1963-02-20
853	1086	227	238290.55	1962-07-23
854	1361	293	35553.10	1962-04-24
855	1478	173	278073.74	1962-11-05
856	1469	429	243574.10	1962-10-29
857	1780	628	544967.97	1963-06-08
858	1870	816	290615.95	1963-06-24
859	1917	833	217025.55	1963-03-25
860	29	768	170404.48	1963-04-29
861	23	841	136434.58	1963-05-03
862	280	551	98778.70	1964-05-15
863	528	553	449518.18	1964-02-01
864	568	569	319365.53	1964-05-26
865	734	694	250147.11	1964-03-09
866	761	988	85407.45	1963-06-08
867	1706	833	101626.07	1963-09-14
868	1926	830	358872.41	1964-05-02
869	1958	146	225853.04	1963-11-23
870	2085	328	259469.48	1964-07-29
871	2099	179	427449.80	1963-10-05
872	32	585	272000.82	1964-07-07
873	33	490	80272.02	1964-09-30
874	333	377	197151.53	1964-12-11
875	238	738	78181.56	1964-11-04
876	284	573	413185.01	1965-05-06
877	272	726	441228.70	1965-08-12
878	562	382	272109.56	1965-02-28
879	564	366	124363.65	1964-05-03
880	768	830	170074.77	1964-01-13
881	1265	188	34880.88	1964-04-05
882	1347	637	204241.46	1964-08-16
883	1871	873	305258.04	1964-10-31
884	31	850	499649.70	1966-01-27
885	332	28	169200.06	1966-03-02
886	765	968	688178.36	1966-07-12
887	766	705	130274.77	1965-05-04
888	827	416	149817.57	1965-06-01
889	960	223	205486.20	1965-04-02
890	956	830	507183.79	1966-04-13
891	1120	325	179332.56	1966-07-12
892	1122	751	374867.66	1965-09-10
893	1259	279	108189.85	1965-04-03
894	1355	859	134405.92	1965-06-08
895	1739	956	259662.36	1966-02-24
896	1872	541	473312.82	1965-09-28
897	169	957	350815.07	1966-10-23
898	309	985	354251.23	1966-06-02
899	444	672	229263.80	1966-11-12
900	770	669	184549.46	1966-08-31
901	906	380	193222.33	1966-10-08
902	1150	386	145938.43	1966-01-08
903	1034	711	276558.37	1967-05-13
904	1077	833	187625.60	1966-05-26
905	1113	416	434611.45	1966-12-13
906	1118	388	546565.79	1967-06-09
907	1260	150	330899.78	1967-07-24
908	1462	387	231936.01	1966-07-29
909	239	569	511253.82	1967-08-28
910	507	429	701623.08	1968-07-08
911	860	139	309385.50	1967-07-22
912	1263	668	319637.71	1968-01-21
913	1272	743	423235.21	1968-02-19
914	1273	416	703808.03	1968-02-06
915	1324	830	77614.83	1967-07-01
916	1480	738	418484.03	1968-05-03
917	1595	431	287698.79	1967-03-28
918	1846	889	331817.80	1967-07-07
919	567	404	215489.23	1968-03-13
920	676	868	234337.17	1968-02-05
921	748	209	453069.15	1968-11-14
922	769	949	92049.98	1968-05-15
923	759	830	269463.01	1968-06-28
924	859	63	189872.84	1968-07-01
925	956	756	264216.68	1968-04-23
926	1146	831	651638.68	1969-02-18
927	1073	527	232229.72	1968-04-20
928	1352	144	265169.98	1968-12-01
929	1349	418	502282.55	1968-11-22
930	1466	651	287986.29	1968-11-01
931	357	974	141009.38	1970-06-04
932	237	791	903951.27	1970-06-08
933	279	587	360315.57	1969-04-22
934	411	807	922975.49	1970-05-03
935	442	465	143266.91	1969-03-01
936	559	316	544711.33	1969-10-04
937	851	366	170958.14	1969-01-29
938	984	703	174272.07	1969-09-22
939	1142	760	194085.22	1969-02-07
940	1154	140	72923.63	1969-07-16
941	1262	469	431702.10	1970-01-23
942	1324	416	195968.96	1970-08-18
943	1597	749	961642.50	1970-05-24
944	1787	522	70941.56	1969-03-26
945	136	611	564020.60	1971-08-15
946	358	684	234939.88	1971-04-25
947	755	346	498848.67	1970-06-16
948	982	992	796353.23	1970-12-27
949	1155	50	590544.68	1971-02-24
950	1027	830	341503.62	1970-08-02
951	1113	665	246081.19	1970-03-14
952	553	516	544742.03	1971-12-22
953	566	457	286318.70	1971-11-10
954	981	64	216078.89	1972-05-18
955	986	353	519795.61	1972-02-20
956	1143	601	248300.91	1971-04-04
957	1112	797	549171.52	1972-06-28
958	1243	254	311614.07	1971-03-07
959	1258	588	955396.05	1972-03-09
960	1468	676	909565.53	1972-05-10
961	1783	157	297648.04	1972-01-03
962	53	142	142932.35	1972-08-05
963	135	476	143617.53	1972-12-21
964	276	279	280768.74	1972-04-17
965	771	485	524697.53	1973-04-21
966	1153	303	697040.19	1973-07-21
967	1500	103	612943.04	1973-01-17
968	1565	9	623746.32	1972-10-16
969	1871	416	305286.26	1972-05-17
970	1875	562	256918.44	1972-07-06
971	57	621	723370.14	1973-11-26
972	48	452	294125.37	1973-12-06
973	54	303	137691.03	1974-02-13
974	137	159	396494.52	1974-03-12
975	214	177	370172.33	1973-03-19
976	281	803	1161044.97	1974-06-02
977	282	429	458738.36	1973-10-22
978	441	243	165848.73	1973-03-16
979	569	15	133839.35	1973-07-04
980	591	810	602291.70	1973-07-25
981	582	926	247302.73	1973-09-30
982	583	700	260151.43	1974-08-08
983	756	462	504401.41	1974-07-17
984	762	608	1057747.09	1974-07-13
985	1135	377	107507.71	1973-02-04
986	1050	954	305582.46	1973-12-13
987	1877	384	200817.87	1973-02-15
988	56	799	550861.79	1974-12-27
989	51	470	397104.51	1974-03-30
990	134	757	503120.71	1975-05-26
991	335	313	166721.86	1975-07-05
992	228	509	279634.69	1974-07-15
993	550	421	99634.44	1974-08-08
994	565	191	551033.32	1974-08-25
995	587	366	92208.58	1974-04-03
996	588	470	177734.36	1974-03-07
997	760	974	257978.33	1974-02-09
998	990	829	109085.89	1974-07-14
999	983	54	615464.78	1975-03-24
1000	1144	614	244307.76	1975-04-12
1001	1145	697	558263.12	1975-06-11
1002	1362	394	755321.07	1974-12-13
1003	1508	51	102864.35	1974-03-08
1004	1501	479	787671.65	1975-07-14
1005	2097	830	1072874.21	1975-08-01
1006	359	847	92776.06	1975-06-15
1007	361	74	877044.96	1976-02-26
1008	226	317	216692.70	1975-12-08
1009	577	774	968163.93	1976-07-26
1010	581	451	264737.50	1975-02-17
1011	768	416	375329.57	1975-02-27
1012	808	830	96320.70	1975-01-19
1013	882	830	682776.19	1975-10-04
1014	992	518	179856.36	1975-08-06
1015	987	474	316305.14	1975-08-26
1016	192	114	503419.11	1977-06-29
1017	231	665	426340.92	1977-08-18
1018	677	148	239162.94	1976-03-06
1019	758	147	245922.83	1976-01-25
1020	991	409	1019649.76	1977-04-07
1021	1137	274	963743.57	1977-06-24
1022	1148	421	1111394.96	1977-05-12
1023	1158	830	299837.01	1976-11-03
1024	1241	295	116309.95	1976-08-02
1025	1777	173	570901.57	1976-08-06
1026	1785	362	529074.62	1976-06-13
1027	1959	322	242521.95	1976-08-07
1028	2000	833	304524.24	1976-04-04
1029	2129	830	223363.50	1976-05-06
1030	58	526	293956.60	1977-01-29
1031	106	830	688290.90	1978-03-25
1032	560	437	482586.13	1978-05-19
1033	589	667	628404.30	1978-02-18
1034	683	175	391933.15	1977-12-13
1035	1161	401	1046788.39	1978-06-12
1036	1497	247	235107.72	1977-04-29
1037	1504	515	590004.03	1977-07-10
1038	2000	416	532532.96	1977-09-27
1039	2023	830	280379.39	1978-01-13
1040	59	955	227695.28	1978-07-27
1041	133	484	327851.33	1978-04-08
1042	227	938	382044.72	1978-05-27
1043	590	805	127116.32	1978-02-20
1044	579	679	177235.32	1979-06-03
1045	680	836	336815.69	1978-09-05
1046	682	447	198390.52	1978-05-26
1047	988	109	705786.97	1978-10-07
1048	1151	297	1183233.94	1979-07-02
1049	1152	670	386442.08	1978-04-27
1050	1147	144	786217.07	1978-10-14
1051	1157	595	882789.98	1979-02-03
1052	1160	770	912376.21	1978-11-24
1053	1374	94	377598.69	1979-03-04
1054	247	78	492783.02	1980-04-10
1055	692	375	322448.50	1979-07-04
1056	684	186	198557.54	1979-11-01
1057	866	141	316190.19	1979-06-21
1058	867	850	885040.32	1979-12-18
1059	1054	830	117213.62	1979-03-14
1060	1383	209	674883.52	1980-03-23
1061	1389	109	347270.16	1979-02-12
1062	1378	46	164492.85	1979-07-04
1063	1596	190	1213488.28	1980-08-05
1064	2129	416	636489.62	1980-08-01
1065	19	549	656986.63	1980-07-06
1066	49	698	241752.01	1980-05-26
1067	219	74	356594.71	1980-09-15
1068	222	499	240271.00	1980-06-07
1069	688	586	950489.89	1981-08-04
1070	686	45	652600.02	1981-02-11
1071	768	756	823548.42	1980-09-06
1072	852	429	797048.02	1981-04-16
1073	1385	502	912039.26	1981-07-05
1074	1388	621	244669.01	1980-02-05
1075	1507	683	214549.60	1980-04-11
1076	2090	274	781818.69	1981-07-05
1077	224	397	411165.71	1982-05-30
1078	443	866	387637.25	1982-06-01
1079	456	441	260195.11	1982-01-19
1080	690	889	1109094.40	1982-02-12
1081	681	193	419514.04	1981-04-18
1082	864	185	683736.24	1981-08-18
1083	1158	416	128149.49	1981-01-26
1084	1379	276	283509.67	1981-05-16
1085	1499	429	185725.58	1981-06-19
1086	1502	809	1282614.35	1982-04-06
1087	229	786	295650.70	1982-05-17
1088	234	255	1001023.64	1982-12-15
1089	308	689	429544.67	1982-02-26
1090	465	332	652320.99	1983-04-16
1091	458	110	153253.39	1982-09-16
1092	586	854	615295.89	1983-06-18
1093	759	416	911399.39	1983-08-10
1094	1162	540	812866.17	1982-09-20
1095	1170	667	150175.22	1982-02-02
1096	1244	647	133672.29	1982-01-13
1097	1387	161	1063046.19	1982-12-23
1098	1788	520	373098.23	1982-07-13
1099	230	129	1003888.78	1984-08-06
1100	578	292	1035047.48	1984-04-22
1101	768	22	1303338.41	1984-04-20
1102	1165	467	1028136.53	1983-12-29
1103	1261	44	287616.86	1983-05-31
1104	1509	338	641937.01	1984-01-20
1105	1743	154	210098.84	1983-06-02
1106	1744	111	592827.31	1984-01-12
1107	2100	46	178424.84	1983-03-24
1108	47	635	1119200.51	1985-01-17
1109	221	194	892215.82	1984-11-03
1110	468	62	597018.70	1984-06-02
1111	563	571	91913.48	1984-05-02
1112	1168	665	612665.89	1985-03-30
1113	1169	510	138793.82	1984-03-02
1114	1386	453	584365.19	1984-07-11
1115	1572	830	121303.62	1984-01-26
1116	1962	299	538253.65	1984-10-25
1117	2102	585	350594.70	1984-09-04
1118	60	273	483465.54	1985-06-10
1119	61	645	811433.33	1985-10-28
1120	52	786	473885.40	1986-01-23
1121	360	995	100824.14	1985-06-16
1122	223	776	144249.43	1985-10-05
1123	466	385	1105582.79	1986-04-29
1124	459	865	849195.85	1986-01-31
1125	985	883	511251.45	1985-07-19
1126	989	696	821089.38	1985-09-06
1127	1391	26	1234098.03	1986-08-21
1128	1505	839	986561.38	1986-01-28
1129	1786	756	439307.96	1985-06-16
1130	1965	725	776103.83	1986-03-18
1131	2023	416	196825.31	1985-07-08
1132	218	625	601508.74	1986-08-11
1133	304	910	109143.99	1986-01-10
1134	462	313	605142.77	1986-07-13
1135	585	550	597835.55	1987-06-05
1136	1166	589	791208.78	1987-07-27
1137	1113	416	228158.68	1986-01-04
1138	1745	172	621131.88	1987-05-09
1139	1797	387	83004.39	1986-01-05
1140	1971	962	1092681.09	1987-06-19
1141	2037	694	182081.35	1986-01-20
1142	274	359	695568.91	1988-08-07
1143	460	264	830907.27	1988-02-25
1144	651	831	146987.48	1987-01-09
1145	787	401	744738.31	1987-09-30
1146	865	68	373446.64	1987-03-17
1147	1149	122	616676.52	1987-11-17
1148	1167	841	655218.37	1988-01-23
1149	1183	917	433134.60	1987-11-13
1150	1185	20	158256.84	1987-09-22
1151	1054	416	385573.23	1988-08-03
1152	1085	830	485093.03	1988-03-18
1153	1392	95	173889.76	1987-09-06
1154	1746	888	68518.25	1987-04-12
1155	1967	818	358795.46	1987-04-07
1156	2105	134	1297424.61	1988-07-02
1157	22	830	827230.40	1989-04-21
1158	277	804	967457.55	1989-05-18
1159	464	347	319953.89	1988-01-17
1160	685	476	281061.86	1989-04-01
1161	1356	191	329403.79	1989-08-11
1162	1609	922	891769.02	1989-02-28
1163	1498	138	1325733.51	1989-08-01
1164	2000	665	360709.29	1988-05-03
1165	193	953	98988.33	1989-03-02
1166	457	111	104527.93	1989-09-06
1167	908	217	296485.20	1989-04-26
1168	1164	739	337208.92	1989-10-16
1169	1182	887	573816.91	1990-04-03
1170	1608	338	87652.87	1989-03-20
1171	1610	590	397221.56	1989-03-15
1172	1496	591	803210.25	1989-10-11
1173	1742	447	475194.51	1989-06-12
1174	1747	932	515423.50	1990-01-22
1175	1876	224	664723.87	1990-01-14
1176	1973	247	1054957.56	1990-03-07
1177	2104	409	942635.04	1990-08-22
1178	106	416	836607.45	1991-08-02
1179	327	163	591940.05	1991-05-30
1180	882	416	1051907.78	1991-04-22
1181	1384	767	485938.02	1990-09-02
1182	1611	504	271787.48	1990-03-22
1183	1572	665	97281.74	1990-01-04
1184	1796	949	361499.20	1991-05-05
1185	1968	695	250204.53	1990-03-13
1186	326	746	1020765.88	1992-01-24
1187	1179	768	166839.65	1991-05-15
1188	1181	607	314055.99	1991-09-14
1189	1011	830	555693.13	1991-10-25
1190	1598	97	544809.78	1992-03-16
1191	1607	825	465530.43	1991-04-27
1192	1605	881	49535.35	1991-01-06
1193	1963	382	592204.96	1992-03-23
1194	2000	416	572462.23	1991-11-07
1195	2101	226	334185.59	1991-05-24
1196	461	296	368033.07	1992-04-11
1197	592	325	145707.68	1992-03-28
1198	580	663	1310981.98	1993-07-01
1199	689	963	591382.74	1992-08-12
1200	744	830	852793.53	1993-05-31
1201	1172	210	800905.35	1993-05-25
1202	1113	329	525344.24	1992-09-02
1203	1613	181	109740.22	1992-05-05
1204	1603	529	764923.16	1992-12-27
1205	1878	79	89690.57	1992-07-06
1206	2051	426	379179.05	1993-01-15
1207	2052	356	881563.23	1993-02-12
1208	217	419	269953.52	1993-06-07
1209	463	700	829112.19	1994-05-10
1210	584	247	275850.58	1993-01-12
1211	679	315	483241.63	1994-04-01
1212	691	35	143125.43	1993-02-07
1213	1085	22	422298.63	1994-03-03
1214	1249	865	208762.65	1993-08-05
1215	1350	830	214106.53	1993-03-15
1216	1381	929	985424.59	1994-08-20
1217	1614	430	212180.58	1993-05-27
1218	1959	830	405223.47	1994-05-03
1219	2038	102	1118154.76	1994-04-08
1220	2049	163	263218.59	1993-10-14
1221	2055	817	526612.83	1994-01-07
1222	225	601	395165.15	1995-04-08
1223	688	830	735580.98	1995-05-17
1224	701	271	427591.84	1994-04-29
1225	858	205	177582.90	1994-07-25
1226	1173	794	1112443.05	1995-06-18
1227	1011	416	860211.13	1995-07-25
1228	1250	204	130254.88	1994-02-08
1229	1279	956	348040.25	1994-05-19
1230	1604	71	123417.96	1994-05-14
1231	1966	6	598445.18	1994-10-20
1232	2048	754	649281.93	1995-07-24
1233	2056	72	1006364.73	1995-05-16
1234	164	830	267241.26	1995-04-27
1235	364	660	368283.93	1996-05-24
1236	369	499	125571.57	1995-02-12
1237	467	185	753486.20	1996-06-08
1238	744	416	458740.03	1995-08-12
1239	1174	646	329262.26	1995-05-13
1240	1167	665	571285.67	1996-01-20
1241	1251	13	642563.60	1996-02-14
1242	1285	830	213041.38	1996-03-06
1243	1276	753	335202.41	1995-03-30
1244	1375	177	766209.56	1996-07-09
1245	1612	399	289721.01	1995-02-01
1246	1600	850	910029.52	1996-07-25
1247	1748	703	543533.48	1995-08-09
1248	1792	440	334954.30	1995-06-28
1249	1878	665	63117.27	1995-04-08
1250	1974	468	284856.16	1995-10-24
1251	2041	516	673865.97	1996-03-12
1252	22	665	746047.70	1997-05-09
1253	688	665	500151.56	1996-11-02
1254	703	454	106090.32	1996-10-29
1255	1197	177	163469.94	1996-03-13
1256	1242	337	379104.20	1996-04-18
1257	1275	957	69780.28	1996-02-06
1258	1380	189	823598.13	1996-11-24
1259	1599	319	780388.24	1997-03-12
1260	1686	444	572216.83	1997-02-16
1261	1793	944	329141.14	1997-02-22
1262	2044	641	499632.19	1997-02-14
1263	2097	416	397766.83	1996-05-03
1264	50	788	75961.99	1997-01-26
1265	302	254	988947.16	1998-08-07
1266	455	956	613397.96	1998-04-05
1267	1180	821	386330.45	1998-01-16
1268	1196	404	189421.53	1997-07-19
1269	1088	830	234694.48	1997-10-11
1270	1288	301	856545.61	1998-01-07
1271	1290	996	49406.82	1997-03-05
1272	1350	665	139647.93	1997-01-04
1273	1606	416	374014.78	1998-03-30
1274	1680	421	359569.54	1997-06-05
1275	1682	411	771914.11	1998-08-17
1276	1964	68	629050.44	1997-12-18
1277	2050	775	282459.28	1997-05-11
1278	2045	793	171280.78	1998-01-12
1279	7	830	720018.75	1999-06-25
1280	148	98	443582.66	1998-06-01
1281	275	253	379989.37	1998-11-23
1282	303	805	78473.57	1998-07-11
1283	704	286	521240.83	1998-07-17
1284	785	379	627504.23	1999-04-16
1285	1280	513	282520.31	1998-07-05
1286	1684	843	295591.28	1998-07-27
1287	1798	433	458191.37	1998-06-11
1288	1972	889	324343.34	1999-01-01
1289	64	885	235246.31	1999-08-04
1290	374	160	348581.46	2000-03-08
1291	1176	975	515076.62	1999-12-11
1292	1190	460	923853.26	2000-02-28
1293	1289	691	309302.40	1999-10-07
1294	1278	469	221288.05	2000-05-20
1295	1517	143	315407.98	1999-04-28
1296	1518	209	316668.66	1999-04-01
1297	1685	592	800737.89	1999-11-17
1298	1785	830	444881.31	1999-05-21
1299	1799	816	186038.56	1999-02-22
1300	1884	848	635178.28	2000-02-22
1301	1885	779	232325.32	1999-11-20
1302	63	514	339832.88	2001-03-19
1303	198	635	369276.92	2000-05-14
1304	371	721	820704.66	2000-11-15
1305	695	571	182360.13	2000-01-02
1306	698	992	328193.28	2001-02-26
1307	1159	77	749129.10	2001-02-10
1308	1088	665	393280.65	2001-07-29
1309	1077	889	191331.25	2000-03-04
1310	1521	411	532587.26	2000-08-16
1311	1785	665	1100480.85	2001-07-14
1312	2053	541	611387.45	2000-09-14
1313	197	946	450454.37	2001-10-28
1314	367	269	328389.04	2001-12-05
1315	301	635	176449.00	2002-02-18
1316	702	15	96729.73	2001-09-20
1317	910	22	371210.67	2002-01-25
1318	1027	416	606084.77	2002-02-24
1319	1284	524	622645.58	2001-09-22
1320	1287	257	710380.72	2001-10-14
1321	1277	869	155630.88	2001-07-01
1322	1282	129	114773.92	2001-01-14
1323	1601	1	184368.67	2001-02-07
1324	1503	808	278576.69	2001-11-28
1325	1514	55	210928.61	2001-05-06
1326	1795	532	266148.06	2001-05-14
1327	1800	329	913484.59	2002-03-28
1328	1895	757	220795.11	2001-02-03
1329	1883	126	1148548.05	2002-05-15
1330	1993	665	971260.72	2002-02-24
1331	62	367	396145.65	2002-09-02
1332	65	280	800138.68	2003-02-24
1333	145	235	112160.99	2002-01-11
1334	207	785	1097554.52	2003-05-02
1335	372	485	413480.62	2003-07-24
1336	763	329	169791.36	2002-09-17
1337	896	830	580943.68	2002-12-02
1338	1198	314	286873.50	2003-01-30
1339	1189	756	638272.55	2003-05-11
1340	1191	313	151050.95	2002-08-17
1341	1281	78	295663.28	2003-04-13
1342	1740	728	116032.40	2002-06-16
1343	1894	594	700095.65	2003-08-05
1344	1890	129	532408.25	2002-06-27
1345	2104	830	584522.00	2002-12-25
1346	142	255	117402.81	2003-01-29
1347	202	973	936943.82	2004-03-25
1348	368	655	435398.30	2003-10-13
1349	896	665	384508.33	2003-06-18
1350	1195	388	149589.44	2004-01-01
1351	1199	349	445336.26	2003-08-02
1352	1248	22	643405.95	2003-08-15
1353	1286	227	228232.91	2003-07-15
1354	1376	606	693406.87	2004-07-09
1355	1683	430	785950.49	2004-02-09
1356	1969	509	963685.63	2004-02-08
1357	144	277	577089.96	2004-08-19
1358	146	475	425972.96	2005-06-04
1359	286	657	1131635.18	2005-05-02
1360	706	121	567152.45	2004-10-12
1361	808	665	303604.33	2005-01-17
1362	1171	956	369224.88	2005-02-21
1363	1515	280	528655.29	2004-06-30
1364	1675	453	260316.88	2004-02-28
1365	1926	416	239815.11	2004-03-25
1366	305	397	1099822.50	2006-05-09
1367	469	225	722882.56	2006-05-28
1368	687	480	225194.02	2005-05-25
1369	699	410	165455.70	2005-02-27
1370	1184	281	404951.43	2005-11-16
1371	1187	254	397331.06	2005-07-18
1372	1377	729	1000314.26	2006-03-29
1373	1412	605	171140.28	2005-02-04
1374	1677	713	391663.39	2005-05-07
1375	1778	846	160690.77	2005-05-13
1376	2104	665	875589.15	2006-08-21
1377	132	645	486160.64	2006-05-12
1378	139	624	413723.55	2006-10-19
1379	786	480	569766.03	2007-01-03
1380	909	261	237095.41	2006-04-14
1381	1177	559	458212.07	2006-06-24
1382	1202	561	292857.07	2006-11-28
1383	1077	665	599413.54	2007-04-24
1384	1281	830	272888.80	2007-02-08
1385	1512	482	732864.12	2007-02-26
1386	1681	730	96388.12	2006-03-01
1387	1779	973	567805.30	2006-11-07
1388	1961	92	792595.11	2007-01-15
1389	1970	450	265962.05	2006-04-14
1390	2042	461	457235.74	2006-08-05
1391	373	22	123489.81	2007-02-21
1392	365	326	335187.45	2007-04-10
1393	871	236	1093465.90	2008-05-17
1394	1676	265	142116.49	2007-01-19
1395	1892	271	560612.89	2007-08-27
1396	1893	561	479014.79	2008-02-09
1397	1889	918	909476.78	2007-12-24
1398	2039	135	703917.83	2008-03-23
1399	2040	95	168598.33	2007-10-01
1400	206	183	714661.62	2008-10-26
1401	201	388	551278.09	2009-02-05
1402	696	581	721042.63	2009-07-25
1403	1201	628	648880.20	2009-02-17
1404	1206	169	486357.05	2008-08-21
1405	1207	984	520494.57	2008-08-04
1406	1208	847	697492.71	2008-11-24
1407	1382	590	273217.53	2008-09-20
1408	1415	910	580126.39	2008-05-30
1409	1416	705	434394.95	2008-12-19
1410	1408	146	690695.32	2009-04-12
1411	1596	830	575045.57	2008-08-11
1412	1780	830	504626.40	2008-06-09
1413	140	279	493386.76	2009-05-05
1414	478	558	487139.82	2009-07-17
1415	705	450	496894.42	2010-02-03
1416	874	319	456461.78	2010-04-02
1417	1292	756	821067.19	2010-03-12
1418	1438	702	403960.81	2009-04-20
1419	1513	204	109386.42	2009-01-11
1420	1794	958	401996.35	2010-06-06
1421	1886	790	573097.92	2009-12-09
1422	2054	823	637556.67	2010-01-11
1423	196	686	1035625.88	2011-03-14
1424	366	270	1128524.32	2011-07-23
1425	479	188	512953.18	2011-08-08
1426	476	948	252380.91	2011-07-28
1427	700	495	269109.53	2010-11-29
1428	1414	605	338941.06	2011-06-28
1429	1418	598	591665.44	2010-05-31
1430	1411	978	466553.14	2010-08-15
1431	1687	875	536397.60	2010-12-12
1432	1882	598	664501.04	2011-04-10
1433	1887	16	123743.07	2010-09-25
1434	206	830	706898.31	2011-10-04
1435	481	187	666897.66	2011-10-28
1436	482	57	337001.21	2012-05-24
1437	713	263	892896.89	2012-06-28
1438	715	800	409877.81	2011-08-14
1439	1204	9	493420.69	2011-10-15
1440	1209	569	722445.24	2011-10-09
1441	1382	665	190838.21	2011-05-08
1442	1407	880	662926.12	2012-03-04
1443	1444	467	548734.75	2011-06-24
1444	1447	217	547298.92	2011-06-20
1445	1976	478	1156926.65	2012-07-09
1446	2116	930	654280.17	2012-06-21
1447	2120	996	555242.85	2011-07-09
1448	473	540	187396.00	2012-12-22
1449	714	726	366356.84	2012-03-22
1450	806	830	555294.87	2013-05-21
1451	1293	200	434928.53	2012-03-26
1452	1448	450	654681.44	2013-03-25
1453	1978	105	493693.90	2012-08-16
1454	2118	408	313292.81	2012-09-20
1455	2119	105	830130.95	2013-03-07
1456	2110	195	343543.79	2012-09-21
1457	143	52	159406.69	2014-01-18
1458	203	826	699994.81	2014-03-02
1459	694	466	262139.26	2013-02-06
1460	697	1000	686968.45	2013-12-23
1461	719	824	1250111.60	2014-05-10
1462	710	799	203121.12	2013-03-09
1463	711	251	90133.55	2013-02-17
1464	1188	402	127921.92	2013-02-27
1465	1405	474	882244.80	2014-06-02
1466	1446	155	562590.97	2013-11-23
1467	1758	453	418481.54	2013-07-30
1468	1780	665	1048017.45	2014-04-15
1469	1819	355	607003.38	2013-09-23
1470	1808	698	221041.17	2013-06-13
1471	1813	115	235497.79	2013-06-11
1472	1896	693	452936.74	2014-02-26
1473	1981	981	1278263.67	2014-05-13
1474	1984	888	460792.15	2014-01-19
1475	472	766	294369.98	2014-05-26
1476	801	572	369291.90	2014-07-04
1477	802	197	472754.82	2015-06-15
1478	792	833	771788.93	2015-01-08
1479	793	672	1297425.05	2015-08-10
1480	1192	299	1305770.10	2015-06-20
1481	1194	479	295635.62	2014-05-27
1482	1211	977	89252.54	2014-03-01
1483	1519	534	470045.30	2014-04-10
1484	1979	987	231603.86	2014-01-06
1485	55	187	1294601.99	2016-08-08
1486	147	733	213880.93	2015-06-10
1487	164	665	655218.16	2016-02-27
1488	200	537	391050.88	2015-09-22
1489	210	830	789300.03	2015-10-12
1490	768	665	1355642.61	2016-06-06
1491	788	842	430386.05	2016-05-23
1492	796	779	417584.64	2015-04-16
1493	806	665	638743.39	2016-08-05
1494	1229	114	1118396.42	2016-02-10
1495	1436	720	952818.62	2015-12-12
1496	1441	166	509906.40	2015-05-23
1497	1443	49	198188.58	2015-01-24
1498	1629	7	258026.32	2015-01-24
1499	1635	8	685380.71	2016-07-03
1500	1596	665	1123609.01	2016-06-14
1501	1817	982	158154.47	2015-05-21
1502	1812	921	1326529.75	2016-07-06
1503	2117	817	960741.42	2016-05-10
1504	2108	172	401027.02	2015-03-15
1505	2112	161	415539.84	2016-05-18
1506	2113	706	734513.65	2016-06-08
1507	2128	830	505957.34	2015-04-29
1508	370	448	353729.81	2017-02-10
1509	800	616	287762.44	2016-11-26
1510	791	409	189884.14	2017-01-19
1511	928	292	642379.23	2016-05-31
1512	914	944	111321.12	2016-06-29
1513	1220	637	385477.40	2016-02-02
1514	1445	877	98117.16	2016-04-10
1515	1506	660	245356.22	2016-03-02
1516	1807	414	525816.51	2017-02-27
1517	1809	393	361914.13	2017-03-12
1518	1980	807	677714.37	2016-10-08
1519	199	59	301997.63	2017-02-16
1520	789	308	333588.48	2017-04-05
1521	872	245	384348.36	2017-11-22
1522	915	210	296977.75	2017-06-14
1523	1077	59	812041.21	2018-07-31
1524	1113	665	1054687.37	2018-06-19
1525	1440	85	701927.62	2018-02-07
1526	1640	170	215200.61	2018-08-18
1527	1641	437	339440.59	2017-05-15
1528	1643	199	181409.47	2017-02-05
1529	2043	318	250714.68	2017-06-25
1530	2107	600	248241.56	2017-02-01
1531	790	71	634258.62	2019-03-13
1532	794	334	81435.81	2018-01-13
1533	873	835	519497.28	2018-06-16
1534	925	1000	223095.55	2019-07-01
1535	917	182	569427.58	2019-04-27
1536	1154	830	193122.15	2019-03-29
1537	1223	75	368862.49	2019-02-13
1538	1224	573	902668.25	2018-09-14
1539	1413	39	238060.33	2018-11-22
1540	1551	830	745773.06	2018-11-30
1541	1679	92	783237.08	2018-10-12
1542	1815	878	527714.15	2018-12-14
1543	1982	878	1027064.27	2018-11-13
1544	2046	59	749524.39	2018-09-10
1545	2115	144	163598.46	2018-11-27
1546	7	665	817048.23	2020-03-02
1547	220	44	328639.21	2019-09-02
1548	470	384	1078494.64	2019-11-30
1549	716	597	695275.20	2020-06-29
1550	921	21	1044582.41	2020-01-19
1551	916	917	178515.25	2019-02-10
1552	1193	854	142733.04	2019-08-19
1553	1228	22	570987.24	2019-04-22
1554	1633	777	951277.13	2019-09-12
1555	1818	267	751488.94	2020-02-01
1556	1959	665	583658.13	2020-07-22
1557	1983	240	85760.13	2019-01-16
1558	2069	833	1571643.65	2020-08-12
1559	195	269	237429.24	2021-03-02
1560	712	416	967287.22	2020-10-06
1561	769	830	406359.46	2021-07-25
1562	1225	304	316461.94	2020-02-26
1563	1602	646	529839.60	2020-10-30
1564	1647	796	400905.76	2020-02-07
1565	1820	143	635097.55	2021-06-15
1566	1891	312	385067.81	2020-02-15
1567	768	416	509058.71	2021-02-23
1568	798	399	1326303.39	2022-05-05
1569	924	723	535494.08	2022-04-05
1570	1186	324	1422597.74	2022-05-03
1571	1205	394	557381.63	2021-04-27
1572	1316	372	239286.24	2021-01-19
1573	1410	932	355059.82	2022-07-21
1574	1439	674	261224.62	2022-04-06
1575	1638	273	593554.34	2021-05-27
1576	1642	365	230111.30	2021-03-29
1577	1645	57	1610028.71	2022-06-02
1578	1631	336	150028.42	2021-02-10
1579	1529	147	1483438.95	2022-03-04
1580	1571	830	280179.79	2021-10-22
1581	1977	714	930224.13	2022-01-15
1582	2114	997	608781.85	2022-05-24
1583	2128	665	1624587.54	2022-06-28
1584	395	602	410579.72	2023-07-05
1585	383	604	89302.28	2022-03-16
1586	387	840	988732.21	2022-08-29
1587	610	852	625681.23	2022-09-18
1588	611	475	335714.45	2022-03-31
1589	648	830	488106.24	2023-04-08
1590	717	249	1040321.74	2022-11-09
1591	920	856	1460259.76	2023-05-01
1592	1219	235	263950.74	2023-01-22
1593	1222	961	751073.02	2022-11-18
1594	1257	60	764955.07	2023-06-29
1595	1283	59	1088519.42	2023-03-14
1596	1317	114	789342.29	2023-01-04
1597	1310	942	232619.07	2022-02-11
1598	1314	296	1713322.23	2023-05-24
1599	1644	462	454694.57	2022-02-20
1600	1648	260	1392226.62	2023-03-09
1601	1516	941	1407877.05	2023-05-18
1602	1551	416	863362.92	2022-11-25
1603	389	588	717587.07	2024-01-16
1604	391	418	2043607.95	2024-08-01
1605	480	579	838080.66	2024-06-15
1606	483	628	994739.71	2024-03-20
1607	474	503	577653.72	2023-02-28
1608	477	513	1036049.34	2023-12-01
1609	718	482	1232119.57	2024-06-10
1610	807	830	883400.65	2024-05-06
1611	912	212	1355327.92	2024-04-20
1612	1307	178	654864.05	2023-04-10
1613	1636	422	240837.46	2023-08-15
1614	1637	360	508593.52	2023-02-15
1615	1511	350	1539481.00	2024-07-31
1616	1691	513	321974.76	2023-09-30
1617	1811	678	759077.38	2024-04-11
